
[
    {
      "name": "Сноуборд Never Summer Infinity",
      "price": 20199,
      "src": "images/never-summer-infinity.jpg",
      "vendorCode": 1001,
      "dataId": 1,
      "color": "black"
    },
    {
      "name": "Сноуборд Never Summer Lady West",
      "price": 20399,
      "src": "images/never-summer-west.jpg",
      "vendorCode": 1002,
      "dataId": 2,
      "color": "black"
    },
    {
      "name": "Сноуборд Never Summer Proto Synthesis Wmn",
      "price": 20399,
      "src": "images/never-summer-ladys-proto.jpg",
      "vendorCode": 1003,
      "dataId": 3,
      "color": "black"
    },
    {
      "name": "Сноуборд Never Summer Snowtrooper",
      "price": 21199,
      "src": "images/never-summer-snowtrooper.jpg",
      "vendorCode": 1004,
      "dataId": 4,
      "color": "black"
    },
    {
      "name": "СНОУБОРД NEVER SUMMER PROTO ULTRA PTU21",
      "price": 18839,
      "src": "images/proto-ultra.jpg",
      "vendorCode": 1005,
      "dataId": 5,
      "color": "black"
    },
    {
      "name": "СНОУБОРД NEVER SUMMER PROTO FR",
      "price": 21899,
      "src": "images/never-summer-proto.png",
      "vendorCode": 1006,
      "dataId": 6,
      "color": "black"
    },
    {
      "name": "СНОУБОРД NEVER SUMMER INFINITY IF21",
      "price": 16639,
      "src": "images/never-summer-infinity.jpg",
      "vendorCode": 1007,
      "dataId": 7,
      "color": "black"
    },
    {
      "name": "Сноуборд Never Summer Snowtrooper",
      "price": 21199,
      "src": "images/never-summer-snowtrooper.jpg",
      "vendorCode": 1008,
      "dataId": 8,
      "color": "black"
    },
    {
      "name": "Сноуборд Never Summer Snowtrooper",
      "price": 21199,
      "src": "images/never-summer-snowtrooper.jpg",
      "vendorCode": 1009,
      "dataId": 9,
      "color": "black"
    },
    {
      "name": "СНОУБОРД NEVER SUMMER HERITAGE H21",
      "price": 17999,
      "src": "images/never-summer-heritage.jpg",
      "vendorCode": 1010,
      "dataId": 10,
      "color": "black"
    },
    {
      "name": "Сноуборд Never Summer Proto Synthesis Wmn",
      "price": 20399,
      "src": "images/never-summer-ladys-proto.jpg",
      "vendorCode": 1011,
      "dataId": 11,
      "color": "black"
    },
    {
      "name": "СНОУБОРД NEVER SUMMER HERITAGE H21",
      "price": 17999,
      "src": "images/never-summer-heritage.jpg",
      "vendorCode": 1012,
      "dataId": 12,
      "color": "black"
    }
  ]



  